<svg width="16" height="16" viewBox="0 0 16 16" fill="none" xmlns="http://www.w3.org/2000/svg">
<path fill-rule="evenodd" clip-rule="evenodd" d="M1 6C1 4.89543 1.89543 4 3 4H13C14.1046 4 15 4.89543 15 6V7H1V6ZM1 9H15V12C15 13.1046 14.1046 14 13 14H3C1.89543 14 1 13.1046 1 12V9ZM6 11H3V12H6V11Z" fill="#241F31"/>
</svg>
